[
    { 
    "subQ":"Schreiben Sie einen Navigator für die Fachbegriffe des WWW zu den Oberthemen\nHTML, CSS und JavaScript. Im Hauptmenü sollen diese 3 Oberthemen zur\nAuswahl stehen. Im Untermenü soll eine zugehörige Liste von Fachbegriffen\nzum jeweiligen ausgewählten Oberthema stehen.\n\nSchreiben Sie in HTML und CSS nur den responsiven Rahmen für einen\nsolchen WWW-Navigator. Dabei können Sie auch ein schöneres Layout als das\nhier gezeigte erstellen. Die Inhalte sollen in einer JSON-Datei extern\ngelagert werden.\nMit der fetch-API soll die JSON-Datei asynchron nicht-blockierend geladen werden,\nund zwar nur einmal, nicht mehrfach. (d.h. Sparen Sie Internet-Bandbreite.)\nSobald die Inhalte angekommen sind, sollen sie im Browser auch sofort angezeigt\nwerden.\n\nFügen Sie selbst in die JSON-Datei zusätzliche Inhalte zu Themen\nder Vorlesung als Strings beispielhaft ein. Wenn Sie Inhalte aus\nfremden Quellen kopieren, so schreiben Sie bitte stets die Quelle\nals externe Ressource hinzu.\nDiese soll dann auf der rechten Seite im WWW-Navigator erscheinen.",
    "subA":"        async function fetchJson(file){\n \n             let response;\n             let jsObject;\n             try{\n                 response = await fetch(file);\n                 jsObject = await response.json();\n             } catch(error) {\n                 console.log(error);\n             }\n             return jsObject;\n         }\n \n         function removeAllChildNodes(parent) {\n             while (parent.firstChild) {\n                   parent.removeChild(parent.firstChild);\n             }\n         }\n \n         function display(string){\n \n             // Get Menu, Description and addional Info\n \n             const parent = document.getElementById(\"menu\");\n             const description = document.getElementById(\"descri\");\n             const addionalInfo = document.getElementById(\"addInfo\");\n \n             // Refresh display\n \n             removeAllChildNodes(parent);\n             description.textContent = \"\";\n             addionalInfo.textContent = \"\";\n \n             if(string === \"HTML\") {\n \n                 // Display the categories only once\n \n                 if(parent.hasChildNodes()){\n                     return;\n                 }\n \n                 const headings = document.createElement(\"li\");\n                 const paragraph = document.createElement(\"li\");\n \n                 headings.textContent = \"heading\";\n                 paragraph.textContent = \"paragraph\";\n                 let toggle = \"\";\n \n                 headings.onclick = () => {\n \n                     if(toggle != \"headings\"){\n                         description.textContent = \"\";\n                         addionalInfo.textContent = \"\";\n                         paragraph.style.color = \"white\";\n                     }\n \n                     toggle = \"headings\";\n \n                     // Display selected node\n \n                     headings.style.color = \"blue\";\n \n                     // Update description\n \n                     data.then(text => { description.textContent =\n                                       text.html.headings.content;})\n \n                     // Update addional Info\n \n                     data.then(text => { addionalInfo.textContent =\n                                       text.html.headings.references;})\n                 }\n \n                 paragraph.onclick = () => {\n \n                     if(toggle != \"paragraph\"){\n                         description.textContent = \"\";\n                         addionalInfo.textContent = \"\";\n                         headings.style.color = \"white\";\n                     }\n \n                     toggle = \"paragraph\";\n \n                     // Display selected node\n \n                     paragraph.style.color = \"blue\";\n \n                     // Update description\n \n                     data.then(text => { description.textContent =\n                                       text.html.paragraph.content;})\n \n                     // Update addional Info\n \n                     data.then(text => { addionalInfo.textContent =\n                                       text.html.paragraph.references;})\n                 }\n \n                 parent.appendChild(headings);\n                 parent.appendChild(paragraph);\n \n                 // Select category: headings by default\n \n                 headings.onclick();\n             }\n \n \n             else if(string === \"CSS\") {\n \n                 // Display the categories only once\n \n                 if(parent.hasChildNodes()){\n                     return;\n                 }\n \n                 const selectors = document.createElement(\"li\");\n                 const colors = document.createElement(\"li\");\n \n                 selectors.textContent = \"selectors\";\n                 colors.textContent = \"colors\";\n \n                 let toggle = \"\";\n \n                 selectors.onclick = () => {\n \n                     if(toggle != \"selectors\"){\n                         description.textContent = \"\";\n                         addionalInfo.textContent = \"\";\n                         colors.style.color = \"white\";\n                     }\n \n                     toggle = \"selectors\";\n \n                     // Display selected node\n \n                     selectors.style.color = \"blue\";\n \n                     // Update description\n \n                     data.then(text => { description.textContent =\n                                       text.css.selectors.content;})\n \n                     // Update addional Info\n \n                     data.then(text => { addionalInfo.textContent =\n                                       text.css.selectors.references;})\n                 }\n \n                 colors.onclick = () => {\n \n                     if(toggle != \"colors\"){\n                         description.textContent = \"\";\n                         addionalInfo.textContent = \"\";\n                         selectors.style.color = \"white\";\n                     }\n \n                     toggle = \"colors\";\n \n                     // Display selected node\n \n                     colors.style.color = \"blue\";\n \n                     // Update description\n \n                     data.then(text => { description.textContent =\n                                       text.css.colors.content;})\n \n                     // Update addional Info\n \n                     data.then(text => { addionalInfo.textContent =\n                                       text.css.colors.references;})\n                 }\n \n                 parent.appendChild(selectors);\n                 parent.appendChild(colors);\n \n                 // Select category: selectors by default\n \n                 selectors.onclick();\n \n             }\n \n \n             else if(string === \"JavaScript\") {\n \n \n                 // Display the categories only once\n \n                 if(parent.hasChildNodes()){\n                     return;\n                 }\n \n                 const _function = document.createElement(\"li\");\n                 const object = document.createElement(\"li\");\n \n                 _function.textContent = \"function\";\n                 object.textContent = \"object\";\n \n                 let toggle = \"\";\n \n                 _function.onclick = () => {\n \n                     if(toggle != \"function\"){\n                         description.textContent = \"\";\n                         addionalInfo.textContent = \"\";\n                         object.style.color = \"white\";\n                     }\n \n                     toggle = \"function\";\n \n                     // Display selected node\n \n                     _function.style.color = \"blue\";\n \n                     // Update description\n \n                     data.then(text => { description.textContent =\n                                       text.javascript.function.content;})\n \n                     // Update addional Info\n \n                     data.then(text => { addionalInfo.textContent =\n                                       text.javascript.function.references;})\n                 }\n \n                 object.onclick = () => {\n \n                     if(toggle != \"object\"){\n                         description.textContent = \"\";\n                         addionalInfo.textContent = \"\";\n                         _function.style.color = \"white\";\n                     }\n \n                     toggle = \"object\";\n \n                     // Display selected node\n \n                     object.style.color = \"blue\";\n \n                     // Update description\n \n                     data.then(text => { description.textContent =\n                                       text.javascript.object.content;})\n \n                     // Update addional Info\n \n                     data.then(text => { addionalInfo.textContent =\n                                       text.javascript.object.references;})\n                 }\n \n                 parent.appendChild(_function);\n                 parent.appendChild(object);\n \n                 // Select category: selectors by default\n \n                 _function.onclick();\n \n             }\n         }\n \n         // Fetch Data from Server\n \n         const data = fetchJson(\"http://www2.inf.h-bonn-rhein-sieg.de/\n                                ~mschm82s/data\");"
    }
]