[
    { 
    "subH":"Implementieren Sie ausschließlich mit HTML und CSS Flexbox folgendes responsive Webdesign nach der Desktop-First-Strategie!",
    "subQ":"Resize the window to see the changes!"
    }
]