[
    { 
    "subQ":"Schreiben Sie eine sichere PHP-Lösung für Login, das\ndie persistierten Registrierungsdaten aus der letzten Aufgabe nutzt. ",
    "subA":"<?PHP\n \n if(isset($_POST[\"hidden\"])){\n\n     $SALT = \"dpijjnd/121k/2k1m  q3300a  d o+13 33\";\n     $username = hash(\"sha384\",$_POST[\"usrN\"].SALT);\n     $password = hash(\"sha384\",$_POST[\"pw\"].SALT);\n \n     $file = \"./logindata.csv\";\n     $new_line = $username.\",\".$password.\"\\n\";\n \n     if(file_put_contents($file,$new_line,FILE_APPEND|LOCK_EX)){\n        print(\"Wurde registriert\");\n     }\n }\n \n if(isset($_POST[\"action\"])){\n \n     $loginusrname = hash(\"sha384\",$_POST[\"usrName\"].SALT);\n     $loginpassword = hash(\"sha384\",$_POST[\"password\"].SALT);\n \n     $i = 0;\n     $status = \"Login fehlgeschlagen!\";\n \n     if(($handle = fopen(\"logindata.csv\",\"r\")) !== FALSE) {\n         while(($login = fgetcsv($handle,1000,\",\")) !== FALSE) {\n             if($loginusrname === $login[$i] && $loginpassword === $login[++$i]){\n                 $status = \"Login erfolgreich!\";\n             }\n \n         }\n         print($status);\n         fclose($handle);\n     }\n }\n ?>\n \n <form action=\"login.php\" method=\"post\">\n   <fieldset>\n   <legend>Register:</legend>\n   <label for=\"usrN\">Username:</label><br>\n   <input type=\"text\" id=\"usrN\" name=\"usrN\" required><br>\n   <label for=\"pw\">Password:</label><br>\n   <input type=\"password\" id=\"pw\" name=\"pw\" required><br><br>\n   <input type=\"submit\" value=\"Confirm\">\n   <input type=\"hidden\" name=\"hidden\" value=1>\n   </fieldset>\n </form>\n \n <form action=\"login.php\" method=\"post\">\n   <fieldset>\n   <legend>Login:</legend>\n   <label for=\"usrName\">Username:</label><br>\n   <input type=\"text\" id=\"usrName\" name=\"usrName\" required><br>\n   <label for=\"password\">Password:</label><br>\n   <input type=\"password\" id=\"password\" name=\"password\" required><br><br>\n   <input type=\"submit\" value=\"Enter\">\n   <input type=\"hidden\" name=\"action\" value=1>\n   </fieldset>\n</form>"
    }
]