[
    {
    "subQ":"Erweitern Sie Ihre Vorrang-Klasse um Logging, indem Sie ein Proxy einfügen.\nLassen Sie sich vom Logger bei jedem Schritt ausgeben, wie viele der\nVorrangrelationen noch übrig bleiben.\n\nVerwenden Sie so weit wie möglich High-Level-Methoden wie Object.keys und\nHigh-Level-Datenstrukturen wie Map und Set und deren Methoden, anstatt\nmühsam von Hand zu iterieren und zu zählen.",
    "subA":"class Vorrang{\n    constructor(relation){\n        this.relation = relation;\n        this.order = [];\n        this.size = relation.length;\n\n        // if relation is empty\n        if(Object.keys(this.relation).length === 0){\n        return;\n        }\n\n        let orderSet = new Set();\n\n        // Collect all tasks in a set\n        for(const task of this.relation){\n            orderSet.add(task[0]);\n            orderSet.add(task[1]);\n        }\n\n        // Convert set to array\n        let order = [...orderSet];\n\n        // Now sort the array according to given relation\n        let posC = 0;\n        let posN = 0;\n        let done = false;\n        let tasktmp;\n        let itercount = 0;\n        let xpostask = \"\";\n        let ypostask = \"\";\n\n        while(!done && (itercount < this.relation.length)){\n\n            done = true;\n            itercount++;\n\n            for(const task of this.relation){\n                xpostask = task[0];\n                ypostask = task[1];\n                posC = order.indexOf(xpostask);\n                posN = order.indexOf(ypostask);\n\n                if(posC > posN){\n\n                    //swap tasks\n                    tasktmp = order[posC];\n                    order[posC] = ypostask;\n                    order[posN] = tasktmp;\n                    done = false;\n                }\n            }\n        }\n\n        if(itercount > this.relation.length){\n            order.clear();\n        }\n        return order;\n   }\n   * [Symbol.iterator]() {\n        yield* this.order;\n   }\n}\n\nconst testOrder = new Vorrang([[\"schlafen\", \"studieren\"], [\"essen\",\"studieren\"],\n[\"studieren\", \"prüfen\"]]);\n \nlet log = 0;\nlet sizeRemaining = 0;\nconst handler = {\n    get: function(target,prop){\n         if(prop === 'size') log = testOrder.size--;\n         return target[prop];\n    }\n\n};\n\nconst proxy = new Proxy(Vorrang,handler);\n \nconst expected = [\"schlafen\",\"essen\",\"studieren\",\"prüfen\"]; \nlet i = 0;\n \nfor(const next of testOrder){\n    proxy.size;\n    console.log(log);\n    console.assert(next === expected[i++]);\n}"
    }
]