[
    { 
    "subQ":"Gegeben ist folgendes HTML-Wireframe.\nFrage: Mit welchem HTML- und CSS Code kann man diesen Wireframe exakt nachbilden?\nSchreiben Sie Ihren CSS-Code direkt in die HTML-Datei.\nGeben Sie Ihren HTML- und CSS-Quellcode zusammen in dieses Textfeld ein:"
    }
]